C:\wscasa\HibernateSpringMvc\src\main\java\com\maltem\academy\dao\PersonneDao.java
C:\wscasa\HibernateSpringMvc\src\main\java\com\maltem\academy\imetier\IGenericMetier.java
C:\wscasa\HibernateSpringMvc\src\main\java\com\maltem\academy\models\Personne.java
C:\wscasa\HibernateSpringMvc\src\main\java\com\maltem\academy\metier\PersonneMetier.java
C:\wscasa\HibernateSpringMvc\src\main\java\com\maltem\academy\idao\IGenericDao.java
C:\wscasa\HibernateSpringMvc\src\main\java\com\maltem\academy\util\HibernateUtil.java
C:\wscasa\HibernateSpringMvc\src\main\java\com\maltem\academy\Application.java
C:\wscasa\HibernateSpringMvc\src\main\java\com\maltem\academy\dao\GenericDao.java
